"as"; is. not, aba.
as: "said", not, a,
train, brain, "non"
etc ... source, the
... , ... , ... , .
nr. bp. etc. a.m. ;
at@at.com hm@at.co.
`str`, `white`, `a`
#the #off #hash #as
#as #tag #pop #jobs
$15.12 $198.11 $var
10% 20% 35% 4% 100%
a^5 b^10*3 10^10^10
and & true && false
a*b c*d 10**3 y*354
(etc), ((a*b) + ca)
(a+c) + (b + a) - a
a-b-c, _private_ -1
[10, 20]; {}, {[]};
a || b, a && b || c
1 | !a | 1 | !b | c
a; 'a', 'c', 'm',''
[,,], ... ... // //
a? b? c? ?? a ?? bc
a ~ b ~ c ~ d ~ abc
<tag> a < b >> c >>
<> <p> <></><p><p/>
a -> b -> => a => (
a = 0; b === c == d
return a; return 0;
<a,b>, a; fn a(a,b)
-> => type::abc a::
